[
    {
        "name": "mind-ab-01",
        "question": "평소에는 성가시시 않았던 일이 성가시게 느껴졌다.",
        "score": [0, 1, 2, 3]
    },
    {
        "name": "mind-ab-02",
        "question": "별로 먹고싶지 않았다. 입맛이 없다.",
        "score": [0, 1, 2, 3]
    },
    {
        "name": "mind-ab-03",
        "question": "가족이나 친구가 도와주더라도 울적한 기분을 떨칠 수 없었다.",
        "score": [0, 1, 2, 3]
    },
    {
        "name": "mind-ab-04",
        "question": "나도 다른 사람만큼 기분이 좋았다.",
        "score": [3, 2, 1, 0]
    },
    {
        "name": "mind-ab-05",
        "question": "하고 있는 일에 마음을 집중하기가 어려웠다.",
        "score": [0, 1, 2, 3]
    },
    {
        "name": "mind-ab-06",
        "question": "우울했다.",
        "score": [0, 1, 2, 3]
    },
    {
        "name": "mind-ab-07",
        "question": "하는 일마다 힘들게 느꼈다.",
        "score": [0, 1, 2, 3]
    },
    {
        "name": "mind-ab-08",
        "question": "미래에 대해 희망적으로 느꼈다.",
        "score": [3, 2, 1, 0]
    },
    {
        "name": "mind-ab-09",
        "question": "내 인생은 실패작이라고 생각했다.",
        "score": [0, 1, 2, 3]
    },
    {
        "name": "mind-ab-10",
        "question": "무서움을 느꼈다.",
        "score": [0, 1, 2, 3]
    },
    {
        "name": "mind-ab-11",
        "question": "잠을 설쳤다.",
        "score": [0, 1, 2, 3]
    },
    {
        "name": "mind-ab-12",
        "question": "행복했다.",
        "score": [3, 2, 1, 0]
    },
    {
        "name": "mind-ab-13",
        "question": "평소보다 말을 적게 했다.",
        "score": [0, 1, 2, 3]
    },
    {
        "name": "mind-ab-14",
        "question": "외로움을 느꼈다.",
        "score": [0, 1, 2, 3]
    },
    {
        "name": "mind-ab-15",
        "question": "사람들이 불친절했다.",
        "score": [0, 1, 2, 3]
    },
    {
        "name": "mind-ab-16",
        "question": "인생이 즐거웠다.",
        "score": [3, 2, 1, 0]
    },
    {
        "name": "mind-ab-17",
        "question": "울음을 터뜨린 적이 있었다.",
        "score": [0, 1, 2, 3]
    },
    {
        "name": "mind-ab-18",
        "question": "슬픔을 느꼈다.",
        "score": [0, 1, 2, 3]
    },
    {
        "name": "mind-ab-19",
        "question": "사람들이 나를 싫어한다고 느꼈다.",
        "score": [0, 1, 2, 3]
    },
    {
        "name": "mind-ab-20",
        "question": "일을 제대로 진척시킬 수 없었다.",
        "score": [0, 1, 2, 3]
    }
]