[
    {
        "name": "mindle-01",
        "question": "가까운 사람들이 나를 떠날까 사랑이나 관심을 계속 확인하게 돼요.",
        "score": [1, 2, 3, 4, 5],
        "diagram": "A"
    },
    {
        "name": "mindle-02",
        "question": "나는 남들이 보기에 부자연스러운 면이 있어요.",
        "score": [1, 2, 3, 4, 5],
        "diagram": "B"
    },
    {
        "name": "mindle-03",
        "question": "나는 곤란한 일들을 혼자 헤쳐나갈 능력이 부족한 것 같아요.",
        "score": [1, 2, 3, 4, 5],
        "diagram": "C"
    },
    {
        "name": "mindle-04",
        "question": "안 좋은 일이 일어날 것만 같은 느낌을 자주 받아요.",
        "score": [1, 2, 3, 4, 5],
        "diagram": "D"
    },
    {
        "name": "mindle-05",
        "question": "또래에 비해서 부모님(혹은 배우자)으로부터 독립하진 못했어요.",
        "score": [1, 2, 3, 4, 5],
        "diagram": "E"
    },
    {
        "name": "mindle-06",
        "question": "사람들은 나를 다혈질이라고 생각할 것 같아요.",
        "score": [1, 2, 3, 4, 5],
        "diagram": "F"
    },
    {
        "name": "mindle-07",
        "question": "주로 내가 주변 사람들을 챙기는 역할을 해요.",
        "score": [1, 2, 3, 4, 5],
        "diagram": "G"
    },
    {
        "name": "mindle-08",
        "question": "무엇을 하든 내가 생각하는 기준을 만족하지 않으면, 마음이 편치 않아요.",
        "score": [1, 2, 3, 4, 5],
        "diagram": "H"
    },
    {
        "name": "mindle-09",
        "question": "일이 잘 되어가는 것 같아도, 언제 잘못되지 않을까 걱정해요.",
        "score": [1, 2, 3, 4, 5],
        "diagram": "D"
    },
    {
        "name": "mindle-10",
        "question": "내가 만약 실수를 한다면, 비난받아도 어쩔 수 없다고 생각해요.",
        "score": [1, 2, 3, 4, 5],
        "diagram": "I"
    },
    {
        "name": "mindle-11",
        "question": "나는 사소한 일에도 화가 치밀어 오르는 편이에요.",
        "score": [1, 2, 3, 4, 5],
        "diagram": "F"
    },
    {
        "name": "mindle-12",
        "question": "사람들과 눈을 맞추는 게 어려워요.",
        "score": [1, 2, 3, 4, 5],
        "diagram": "J"
    },
    {
        "name": "mindle-13",
        "question": "나를 따뜻하게 감싸주고, 정서적으로 세심하게 돌봐주는 사람이 없다고 느껴져요.",
        "score": [1, 2, 3, 4, 5],
        "diagram": "K"
    },
    {
        "name": "mindle-14",
        "question": "나는 타고난 게 남들과는 다르다는 느낌이 들어요.",
        "score": [1, 2, 3, 4, 5],
        "diagram": "B"
    },
    {
        "name": "mindle-15",
        "question": "나는 일상생활에서 많은 일들을 남들에게 의지해서 처리해요. ",
        "score": [1, 2, 3, 4, 5],
        "diagram": "C"
    },
    {
        "name": "mindle-16",
        "question": "부모님은 나의 삶에 대해서 간섭이 많은 편이에요.",
        "score": [1, 2, 3, 4, 5],
        "diagram": "E"
    },
    {
        "name": "mindle-17",
        "question": "내가 원하는 것을 말하거나 챙기는 것이 불편하게 느껴져요.",
        "score": [1, 2, 3, 4, 5],
        "diagram": "G"
    },
    {
        "name": "mindle-18",
        "question": "“이 정도면 됐다”는 수준에 만족하고 타협하는 게 잘 안 돼요. ",
        "score": [1, 2, 3, 4, 5],
        "diagram": "H"
    },
    {
        "name": "mindle-19",
        "question": "작은 일도 크게 걱정하는 편이에요.",
        "score": [1, 2, 3, 4, 5],
        "diagram": "D"
    },
    {
        "name": "mindle-20",
        "question": "나 혹은 다른 사람의 실수를 너그럽게 용서하기가 힘들어요.",
        "score": [1, 2, 3, 4, 5],
        "diagram": "I"
    },
    {
        "name": "mindle-21",
        "question": "일이 원하는 대로 되지 않으면 화를 참는 게 어려워요.",
        "score": [1, 2, 3, 4, 5],
        "diagram": "F"
    },
    {
        "name": "mindle-22",
        "question": "여러 사람들과 대화하고 어울려야 하면 긴장돼요.",
        "score": [1, 2, 3, 4, 5],
        "diagram": "J"
    },
    {
        "name": "mindle-23",
        "question": "내가 누군가에게 특별하고 소중한 존재라고 느꼈던 적이 거의 없어요.",
        "score": [1, 2, 3, 4, 5],
        "diagram": "K"
    },
    {
        "name": "mindle-24",
        "question": "소중한 사람이 옆에 있어도, 결국은 나를 떠나지 않을까 불안해 하는 편이에요.",
        "score": [1, 2, 3, 4, 5],
        "diagram": "A"
    },
    {
        "name": "mindle-25",
        "question": "나는 어디에도 소속감이 잘 안 느껴져요.",
        "score": [1, 2, 3, 4, 5],
        "diagram": "B"
    },
    {
        "name": "mindle-26",
        "question": "나는 다른 사람들보다 아는 게 부족한 것 같아요. ",
        "score": [1, 2, 3, 4, 5],
        "diagram": "C"
    },
    {
        "name": "mindle-27",
        "question": "사소한 일상도 부모님과 공유해야할 것 같은 느낌이 들어요. 안 그러면 왠지 마음이 불편해요.",
        "score": [1, 2, 3, 4, 5],
        "diagram": "E"
    },
    {
        "name": "mindle-28",
        "question": "상대방의 기분과 의견에 맞추느라, 나의 기분과 마음을 잘 돌보지 못해요.",
        "score": [1, 2, 3, 4, 5],
        "diagram": "G"
    },
    {
        "name": "mindle-29",
        "question": "나의 기준은 대부분의 다른 사람들보다 더 높은 것  같아요.",
        "score": [1, 2, 3, 4, 5],
        "diagram": "H"
    },
    {
        "name": "mindle-30",
        "question": "무슨 일이든 잘못될 가능성이 있기 때문에, 준비는 늘 더 많이 할수록 좋아요.",
        "score": [1, 2, 3, 4, 5],
        "diagram": "D"
    },
    {
        "name": "mindle-31",
        "question": "만약 일을 제대로 해내지 못하면, 왠지 화가 나고 용납하기 어려워요.",
        "score": [1, 2, 3, 4, 5],
        "diagram": "I"
    },
    {
        "name": "mindle-32",
        "question": "나는 쉽게 조급해하고, 흥분하는 편이에요.",
        "score": [1, 2, 3, 4, 5],
        "diagram": "F"
    },
    {
        "name": "mindle-33",
        "question": "다른 사람들이 나를 이상하게 생각할까봐 걱정돼요.",
        "score": [1, 2, 3, 4, 5],
        "diagram": "J"
    },
    {
        "name": "mindle-34",
        "question": "진정으로 내 마음을 알아주고 이해해 주는 사람이 없었어요.",
        "score": [1, 2, 3, 4, 5],
        "diagram": "K"
    },
    {
        "name": "mindle-35",
        "question": "사람들 사이에 있어도 외로움을 느껴요.",
        "score": [1, 2, 3, 4, 5],
        "diagram": "B"
    },
    {
        "name": "mindle-36",
        "question": "일상적인 상황에서 나는 판단과 대처에 대체로 자신이 없어요.",
        "score": [1, 2, 3, 4, 5],
        "diagram": "C"
    },
    {
        "name": "mindle-37",
        "question": "나는 때로 부모님의 아바타 같은 느낌이 들기도 해요.",
        "score": [1, 2, 3, 4, 5],
        "diagram": "E"
    },
    {
        "name": "mindle-38",
        "question": "다른 사람들이 나를 어떻게 생각할까 자꾸 신경쓰여요.",
        "score": [1, 2, 3, 4, 5],
        "diagram": "G"
    },
    {
        "name": "mindle-39",
        "question": "나는 무언가를 더 이루고 해내야 한다는 압박감이 있어요.",
        "score": [1, 2, 3, 4, 5],
        "diagram": "H"
    },
    {
        "name": "mindle-40",
        "question": "왜 실수를 했는지를 떠나서, 결과가 잘못되면 대가를 치러야 한다고 생각해요.",
        "score": [1, 2, 3, 4, 5],
        "diagram": "I"
    },
    {
        "name": "mindle-41",
        "question": "화났을 때 생각보다 행동이 앞서서 뒤늦게 후회해요.",
        "score": [1, 2, 3, 4, 5],
        "diagram": "F"
    },
    {
        "name": "mindle-42",
        "question": "나는 어떤 모임에서도 주변인 같고, 혼자라는 느낌이에요.",
        "score": [1, 2, 3, 4, 5],
        "diagram": "B"
    },
    {
        "name": "mindle-43",
        "question": "무언가를 책임져야 하는 상황이 두려워요.",
        "score": [1, 2, 3, 4, 5],
        "diagram": "C"
    },
    {
        "name": "mindle-44",
        "question": "부모님(혹은 배우자)로부터 독립된 나만의 정체성, 색깔이 부족한 것 같아요.",
        "score": [1, 2, 3, 4, 5],
        "diagram": "E"
    },
    {
        "name": "mindle-45",
        "question": "화로 인해서, 대인관계나 중요한 일을 망친 적이 있어요.",
        "score": [1, 2, 3, 4, 5],
        "diagram": "F"
    },
    {
        "name": "mindle-46",
        "question": "다른 사람의 부탁이나 요구를 거절하기 어려워서 참는 편이에요.",
        "score": [1, 2, 3, 4, 5],
        "diagram": "G"
    },
    {
        "name": "mindle-47",
        "question": "나는 내 실수에 관대하지 않아요.",
        "score": [1, 2, 3, 4, 5],
        "diagram": "H"
    },
    {
        "name": "mindle-48",
        "question": "나는 선택을 잘못해서 나쁜 결과가 생길까봐 걱정돼요.",
        "score": [1, 2, 3, 4, 5],
        "diagram": "D"
    },
    {
        "name": "mindle-49",
        "question": "나는 종종 내가 잘못하고 있는 듯한 느낌을 받아요.",
        "score": [1, 2, 3, 4, 5],
        "diagram": "I"
    },
    {
        "name": "mindle-50",
        "question": "차라리 혼자가 편하다는 생각을 자주해요.",
        "score": [1, 2, 3, 4, 5],
        "diagram": "J"
    }
]